{
  "authors": [
    {
      "mode": "ModoDoctor",
      "name": "Doctor"
    }
  ],
  "modes": [
    {
      "name": "ModoDoctor",
      "colors": [
        "#ed3b00",
        "#00ff00",
        "#f3cb00",
        "#ff0000",
        "#0000ff",
        "#008000",
        "#ff8c00",
        "#00b2ee",
        "#8acd00",
        "#0080ff",
        "#aa00ff",
        "#ffff00",
        "#fa1a00",
        "#8b2500",
        "#00ff70",
        "#ff00ff",
        "#0055ed"
      ],
      "choices": [
        "Calambres",
		"Caliente",
		"Cosquilleo",
		"Dormido",
		"Electrizante",
		"Frío",
		"Golpeteo",
		"Penetrante",
		"Pesado",
		"Pinchazo",
		"Presión",
		"Punzante",
		"Quema",
        "Radiante",
        "Romo",
        "Sensible",
        "Tenso"
      ],
      "confirmRegular": "¿Ha dibujado <b>todos</b> sus síntomas?",
      "confirmRegularPositive": "Finalizar dibujo",
      "confirmRegularNegative": "Cancelar",
      "intensityScaleMin": "Ningún\nsíntoma",
      "intensityScaleMax": "Mayor\nintensidad\nimaginable",
      "drawingDoneButton": "Finalizar dibujo",
      "newSensationButton": "Nuevo síntoma",
      "tagButton": "Modificar síntoma",
      "drawButton": "Dibujar",
      "noChoiceSelected": "Defina el síntoma con una o más palabras.",
      "noIntensitySelected": "Defina la intensidad en la escala inferior.",
      "sensationText": "%d. Síntoma",
      "emptyTabs": "Añada un síntoma.",
      "emptyTags": "Defina el síntoma con una o más palabras."
    }
  ],
  "viewingColors": [
    "#ed3b00",
    "#00ff00",
    "#f3cb00",
    "#ff0000",
    "#0000ff",
    "#008000",
    "#ff8c00",
    "#00b2ee",
    "#8acd00",
    "#0080ff",
    "#aa00ff",
    "#ffff00",
    "#fa1a00",
    "#8b2500",
    "#00ff70",
    "#ff00ff",
    "#0055ed"
  ]
}
